{
  "code": 0,
  "errcode": 0,
  "data": {
    "list": [
      {
        "userId": 306309,
        "nickName": "王一凡",
        "courseId": 1735594,
        "progress": 100,
        "courseName": "中国近现代史纲要",
        "courseResourceCount": 40,
        "askCount": 0,
        "noteCount": 0,
        "homeworkStudyTime": 0,
        "videoStudyTime": 0,
        "documentStudyTime": 969,
        "totalStudyTime": 969,
        "homeworkPercent": 0,
        "videoPercent": 0,
        "documentPercent": 100,
        "studyCount": 6,
        "finishedHomeworkCount": 0,
        "finishedActivityCount": 13,
        "homeworkCount": 0,
        "activityCount": 13
      },
      {
        "userId": 306310,
        "nickName": "陈浮",
        "courseId": 1735594,
        "progress": 90,
        "courseName": "中国近现代史纲要",
        "courseResourceCount": 40,
        "askCount": 0,
        "noteCount": 0,
        "homeworkStudyTime": 0,
        "videoStudyTime": 0,
        "documentStudyTime": 741,
        "totalStudyTime": 741,
        "homeworkPercent": 0,
        "videoPercent": 0,
        "documentPercent": 100,
        "studyCount": 2,
        "finishedHomeworkCount": 0,
        "finishedActivityCount": 13,
        "homeworkCount": 0,
        "activityCount": 13
      },
      {
        "userId": 306311,
        "nickName": "韩东皓",
        "courseId": 1735594,
        "progress": 100,
        "courseName": "中国近现代史纲要",
        "courseResourceCount": 40,
        "askCount": 0,
        "noteCount": 0,
        "homeworkStudyTime": 0,
        "videoStudyTime": 0,
        "documentStudyTime": 82,
        "totalStudyTime": 82,
        "homeworkPercent": 0,
        "videoPercent": 0,
        "documentPercent": 100,
        "studyCount": 2,
        "finishedHomeworkCount": 0,
        "finishedActivityCount": 13,
        "homeworkCount": 0,
        "activityCount": 13
      },
      {
        "userId": 306312,
        "nickName": "席梦博",
        "courseId": 1735594,
        "progress": 100,
        "courseName": "中国近现代史纲要",
        "courseResourceCount": 40,
        "askCount": 0,
        "noteCount": 0,
        "homeworkStudyTime": 0,
        "videoStudyTime": 0,
        "documentStudyTime": 12110,
        "totalStudyTime": 12110,
        "homeworkPercent": 0,
        "videoPercent": 0,
        "documentPercent": 100,
        "studyCount": 9,
        "finishedHomeworkCount": 0,
        "finishedActivityCount": 13,
        "homeworkCount": 0,
        "activityCount": 13
      },
      {
        "userId": 306313,
        "nickName": "唐倩雨",
        "courseId": 1735594,
        "progress": 100,
        "courseName": "中国近现代史纲要",
        "courseResourceCount": 40,
        "askCount": 5,
        "noteCount": 21,
        "homeworkStudyTime": 0,
        "videoStudyTime": 0,
        "documentStudyTime": 20634,
        "totalStudyTime": 20634,
        "homeworkPercent": 0,
        "videoPercent": 0,
        "documentPercent": 100,
        "studyCount": 8,
        "finishedHomeworkCount": 0,
        "finishedActivityCount": 13,
        "homeworkCount": 0,
        "activityCount": 13
      },
      {
        "userId": 306314,
        "nickName": "周聪",
        "courseId": 1735594,
        "progress": 95,
        "courseName": "中国近现代史纲要",
        "courseResourceCount": 40,
        "askCount": 26,
        "noteCount": 13,
        "homeworkStudyTime": 0,
        "videoStudyTime": 0,
        "documentStudyTime": 8401,
        "totalStudyTime": 8401,
        "homeworkPercent": 0,
        "videoPercent": 0,
        "documentPercent": 100,
        "studyCount": 158,
        "finishedHomeworkCount": 0,
        "finishedActivityCount": 13,
        "homeworkCount": 0,
        "activityCount": 13
      },
      {
        "userId": 306315,
        "nickName": "张雅霏",
        "courseId": 1735594,
        "progress": 98,
        "courseName": "中国近现代史纲要",
        "courseResourceCount": 40,
        "askCount": 0,
        "noteCount": 0,
        "homeworkStudyTime": 0,
        "videoStudyTime": 0,
        "documentStudyTime": 2370,
        "totalStudyTime": 2370,
        "homeworkPercent": 0,
        "videoPercent": 0,
        "documentPercent": 100,
        "studyCount": 2,
        "finishedHomeworkCount": 0,
        "finishedActivityCount": 13,
        "homeworkCount": 0,
        "activityCount": 13
      },
      {
        "userId": 306316,
        "nickName": "张一鸣",
        "courseId": 1735594,
        "progress": 88,
        "courseName": "中国近现代史纲要",
        "courseResourceCount": 40,
        "askCount": 0,
        "noteCount": 0,
        "homeworkStudyTime": 0,
        "videoStudyTime": 0,
        "documentStudyTime": 2576,
        "totalStudyTime": 2576,
        "homeworkPercent": 0,
        "videoPercent": 0,
        "documentPercent": 100,
        "studyCount": 9,
        "finishedHomeworkCount": 0,
        "finishedActivityCount": 13,
        "homeworkCount": 0,
        "activityCount": 13
      },
      {
        "userId": 306317,
        "nickName": "冯浩杰",
        "courseId": 1735594,
        "progress": 98,
        "courseName": "中国近现代史纲要",
        "courseResourceCount": 40,
        "askCount": 0,
        "noteCount": 0,
        "homeworkStudyTime": 0,
        "videoStudyTime": 0,
        "documentStudyTime": 2824,
        "totalStudyTime": 2824,
        "homeworkPercent": 0,
        "videoPercent": 0,
        "documentPercent": 100,
        "studyCount": 7,
        "finishedHomeworkCount": 0,
        "finishedActivityCount": 13,
        "homeworkCount": 0,
        "activityCount": 13
      },
      {
        "userId": 306318,
        "nickName": "缪继林",
        "courseId": 1735594,
        "progress": 100,
        "courseName": "中国近现代史纲要",
        "courseResourceCount": 40,
        "askCount": 0,
        "noteCount": 0,
        "homeworkStudyTime": 0,
        "videoStudyTime": 0,
        "documentStudyTime": 2088,
        "totalStudyTime": 2088,
        "homeworkPercent": 0,
        "videoPercent": 0,
        "documentPercent": 100,
        "studyCount": 3,
        "finishedHomeworkCount": 0,
        "finishedActivityCount": 13,
        "homeworkCount": 0,
        "activityCount": 13
      },
      {
        "userId": 306319,
        "nickName": "刘媛媛",
        "courseId": 1735594,
        "progress": 100,
        "courseName": "中国近现代史纲要",
        "courseResourceCount": 40,
        "askCount": 0,
        "noteCount": 0,
        "homeworkStudyTime": 0,
        "videoStudyTime": 0,
        "documentStudyTime": 21183,
        "totalStudyTime": 21183,
        "homeworkPercent": 0,
        "videoPercent": 0,
        "documentPercent": 100,
        "studyCount": 3,
        "finishedHomeworkCount": 0,
        "finishedActivityCount": 13,
        "homeworkCount": 0,
        "activityCount": 13
      },
      {
        "userId": 306319,
        "nickName": "刘媛媛",
        "courseId": 1735594,
        "progress": 100,
        "courseName": "中国近现代史纲要",
        "courseResourceCount": 40,
        "askCount": 0,
        "noteCount": 0,
        "homeworkStudyTime": 0,
        "videoStudyTime": 0,
        "documentStudyTime": 21183,
        "totalStudyTime": 21183,
        "homeworkPercent": 0,
        "videoPercent": 0,
        "documentPercent": 100,
        "studyCount": 3,
        "finishedHomeworkCount": 0,
        "finishedActivityCount": 13,
        "homeworkCount": 0,
        "activityCount": 13
      }
    ],
    "totalRecords": 45,
    "pageNo": 1,
    "pageSize": 12,
    "totalPages": 4,
    "topPage": 1,
    "previousPage": 1,
    "nextPage": 2,
    "bottomPage": 4
  },
  "suc": true
}